<?xml version="1.0" encoding="UTF-8"?>
<svg width="37px" height="30px" viewBox="0 0 37 30" version="1.1" xmlns="http://www.w3.org/2000/svg" xmlns:xlink="http://www.w3.org/1999/xlink">
    <!-- Generator: Sketch 52.5 (67469) - http://www.bohemiancoding.com/sketch -->
    <title>»</title>
    <desc>Created with Sketch.</desc>
    <g id="Page-1" stroke="none" stroke-width="1" fill="none" fill-rule="evenodd">
        <g id="0_Beispiel_Startseite_Navigation" transform="translate(-130.000000, -1762.000000)" fill="#384A55">
            <g id="Group-2" transform="translate(128.000000, 1498.000000)">
                <g id="Group" transform="translate(1.000000, 257.000000)">
                    <path d="M10.84,21.976 L0.984,7.768 C2.64800832,7.51199872 4.3333248,7.384 6.04,7.384 C7.5333408,7.384 8.96265984,7.51199872 10.328,7.768 L20.312,21.976 L10.328,36.184 C8.96265984,36.4400013 7.5333408,36.568 6.04,36.568 C4.3333248,36.568 2.64800832,36.4400013 0.984,36.184 L10.84,21.976 Z M27.864,21.976 L18.008,7.768 C19.6720083,7.51199872 21.3573248,7.384 23.064,7.384 C24.5573408,7.384 25.9866598,7.51199872 27.352,7.768 L37.336,21.976 L27.352,36.184 C25.9866598,36.4400013 24.5573408,36.568 23.064,36.568 C21.3573248,36.568 19.6720083,36.4400013 18.008,36.184 L27.864,21.976 Z" id="»"></path>
                </g>
            </g>
        </g>
    </g>
</svg>