<?xml version="1.0" encoding="UTF-8"?>
<svg width="24px" height="24px" viewBox="0 0 24 24" version="1.1" xmlns="http://www.w3.org/2000/svg" xmlns:xlink="http://www.w3.org/1999/xlink">
    <!-- Generator: Sketch 52.5 (67469) - http://www.bohemiancoding.com/sketch -->
    <title>Shape 2</title>
    <desc>Created with Sketch.</desc>
    <g id="Page-1" stroke="none" stroke-width="1" fill="none" fill-rule="evenodd">
        <g id="0_Beispiel_Karte_2" transform="translate(-193.000000, -121.000000)" fill="#FFFFFF">
            <g id="Group-3" transform="translate(113.000000, 20.000000)">
                <g id="Group-43">
                    <g id="Group-44">
                        <g id="Group-23" transform="translate(73.000000, 95.000000)">
                            <g id="Shape-2" transform="translate(7.000000, 6.000000)">
                                <g id="Group-9">
                                    <path d="M-1.42108547e-14,8.97303935 C-1.42108547e-14,13.9326829 4.05282285,17.9460787 9.06118929,17.9460787 C14.0695557,17.9460787 18.1223786,13.9326829 18.1223786,8.97303935 C18.1223786,4.01339578 14.0695557,-1.42108547e-14 9.06118929,-1.42108547e-14 C4.05282285,-1.42108547e-14 -1.42108547e-14,4.01339578 -1.42108547e-14,8.97303935 L-1.42108547e-14,8.97303935 Z M3.29497792,8.97303935 C3.29497792,5.82431827 5.88153559,3.2629234 9.06118929,3.2629234 C12.240843,3.2629234 14.8274007,5.82431827 14.8274007,8.97303935 C14.8274007,12.1217604 12.240843,14.6831553 9.06118929,14.6831553 C5.88153559,14.6831553 3.29497792,12.1217604 3.29497792,8.97303935 L3.29497792,8.97303935 Z M16.1783416,19.2838773 L20.5277125,23.5909362 C21.0219592,24.0803747 22.092827,24.1456332 22.9659961,23.7051385 C23.9050648,23.2320146 24.2675124,21.3232044 23.7897406,20.7195636 L19.5062693,16.3961901 C18.7648993,15.4825715 17.2986341,15.4988861 16.3430905,16.4451339 C15.4863962,17.293494 15.4534465,18.5660341 16.1783416,19.2838773 L16.1783416,19.2838773 Z" id="Shape"></path>
                                    <polygon id="Rectangle" points="5 8 5 9.6 13 9.6 13 8"></polygon>
                                </g>
                            </g>
                        </g>
                    </g>
                </g>
            </g>
        </g>
    </g>
</svg>